
-- File Name = C:/workspace/main/OFC-I/reconfig_mif/sfp_6g_inst_channel.mif.mif
WIDTH=16;
DEPTH=81;

ADDRESS_RADIX=UNS;
DATA_RADIX=BIN;

CONTENT BEGIN
	0   :   0000000000100001; -- Start of MIF opcode - FAMILY - Arria V
	1   :   0000000000000010; -- Type of MIF opcode
	2   :   0000000000000011; -- RefClk switch opcode
	3   :   0000000000000100; -- CGB PLL switch opcode
	4   :   0011100000000000; -- PMA - TX
	5   :   0000110100100100;
	6   :   0000001011110000;
	7   :   0000000110101100;
	8   :   0011100000000001;
	9   :   0000001010001100;
	10  :   0000000000000000;
	11  :   0000110000000000;
	12  :   0010100000001110; -- PMA - RX (PLL section)
	13  :   0001010100000000;
	14  :   0000000000000000;
	15  :   1000010001010000;
	16  :   0000000000000001;
	17  :   0000000100000000;
	18  :   0010100000010011; -- PMA - RX
	19  :   1110010000000000;
	20  :   0000111100010000;
	21  :   0000000001000001;
	22  :   0000000001011111;
	23  :   0011000000000000;
	24  :   0000100011111010; -- PCS PLD IF - TX
	25  :   0000000000000000;
	26  :   0000100011111110; -- PCS PLD IF - RX
	27  :   0000000000000000;
	28  :   0001000100000010; -- PCS PLD IF - COM
	29  :   0000000000000000;
	30  :   0000000000000000;
	31  :   0010000010010110; -- PCS8G - TX
	32  :   0000110000110000;
	33  :   1110100000000000;
	34  :   0000000000000000;
	35  :   0000111001001000;
	36  :   1101100010100000; -- PCS8G - RX
	37  :   0110000001000000;
	38  :   0010101000000000;
	39  :   0000000000000000;
	40  :   0000000101111100;
	41  :   0000000110001111;
	42  :   0000001100000011;
	43  :   0001001101011110;
	44  :   0000000000000000;
	45  :   0000000000000000;
	46  :   0000000000000000;
	47  :   0000000000000000;
	48  :   0000000110000000;
	49  :   0110001100010001;
	50  :   0001000110111100;
	51  :   0000000000000000;
	52  :   0000000000000000;
	53  :   0000000000000000;
	54  :   0000001001010000;
	55  :   0000000000000000;
	56  :   0000000000000000;
	57  :   0000000000000000;
	58  :   0000000000000000;
	59  :   0000100000000000;
	60  :   0000000000000000;
	61  :   0000000000000000;
	62  :   0001000000010000;
	63  :   0011111111100000;
	64  :   0010100011011010; -- PCS8G - PIPE
	65  :   0000000000000000;
	66  :   0000000000000000;
	67  :   0000000000000000;
	68  :   0000000000000000;
	69  :   0000000000000000;
	70  :   0000100001100100; -- PCS PMA IF - TX
	71  :   0000000000000000;
	72  :   0000100001101000; -- PCS PMA IF - RX
	73  :   0000000000000000;
	74  :   0010100001101100; -- PCS PMA IF - COM
	75  :   0100000000000000;
	76  :   0000000000000000;
	77  :   0000000000000000;
	78  :   0000000000000000;
	79  :   0000000000000000;
	80  :   0000000000011111; -- End of MIF opcode
END;
