{
	"system" : {
		"platform" : "windows64",
		"os_name" : "Windows 7",
		"os_version" : "6.2"
	},
	"error" : {
		"executable" : "quartus",
		"comment" : "not_applicable",
		"error_message" : "Access Violation at 0X00007FFE200E1EAF",
		"source_file" : "unknown",
		"line" : "0",
		"stack_trace" : "\t0x7ffe200e1eae: CCL_MSG + 0x51eae (?write_message@MSG_REPORT_FILE@@QEAA_NPEAVMSG_POST@@@Z + 0x3e)\n\t0x7ffe12b56f4e: SYS_QUI + 0x16f4e (?save_msg@QUI_DISPLAY@@QEAAXAEBVFIO_PATH@@@Z + 0x19e)\n\t0x7ffe12b737b0: SYS_QUI + 0x337b0 (?qui_get_main_frame_wnd_with_clsid@@YAPEAVQUI_FRAME_WND@@U_GUID@@@Z + 0xa90)\n\t0x7ffe12b6a31d: SYS_QUI + 0x2a31d (?flow_starting_setup@QUI_FRAME_WND@@QEAA_NW4FSTR_FLOW_ENUM@@_N@Z + 0x7d)\n\t0x7ffe12b52f71: SYS_QUI + 0x12f71 (?start_flow@QUI_APP@@QEAA_NW4FSTR_FLOW_ENUM@@AEBV?$basic_string@DU?$char_traits@D@std@@V?$MEM_STL_ALLOCATOR@D@@@std@@_N22@Z + 0x51)\n\t0x7ffdf3e89c15: edt_tedq + 0x29c15\n\t 0x754bc160: QtCore4 + 0x14c160 (?activate@QMetaObject@@SAXPEAVQObject@@PEBU1@HPEAPEAX@Z + 0x520)\n\t 0x756dc13f: QtGui4 + 0xc13f (?activate@QAction@@QEAAXW4ActionEvent@1@@Z + 0xdf)\n\t 0x75b11d83: QtGui4 + 0x441d83 (?actionGeometry@QMenu@@QEBA?AVQRect@@PEAVQAction@@@Z + 0x443)\n\t 0x75b11c15: QtGui4 + 0x441c15 (?actionGeometry@QMenu@@QEBA?AVQRect@@PEAVQAction@@@Z + 0x2d5)\n\t 0x75745174: QtGui4 + 0x75174 (?event@QWidget@@MEAA_NPEAVQEvent@@@Z + 0xd4)\n\t 0x75b12ec4: QtGui4 + 0x442ec4 (?event@QMenu@@MEAA_NPEAVQEvent@@@Z + 0x284)\n\t 0x756fc765: QtGui4 + 0x2c765 (?notify_helper@QApplicationPrivate@@QEAA_NPEAVQObject@@PEAVQEvent@@@Z + 0xf5)\n\t 0x756fb35e: QtGui4 + 0x2b35e (?notify@QApplication@@UEAA_NPEAVQObject@@PEAVQEvent@@@Z + 0x71e)\n\t 0x754aaaab: QtCore4 + 0x13aaab (?notifyInternal@QCoreApplication@@AEAA_NPEAVQObject@@PEAVQEvent@@@Z + 0x7b)\n\t 0x756ffa3e: QtGui4 + 0x2fa3e (?sendMouseEvent@QApplicationPrivate@@SA_NPEAVQWidget@@PEAVQMouseEvent@@00PEAPEAV2@AEAV?$QPointer@VQWidget@@@@_N@Z + 0x1de)\n\t 0x757741a6: QtGui4 + 0xa41a6 (?trUtf8@QScrollBar@@SA?AVQString@@PEBD0H@Z + 0x10c6)\n\t 0x75777f61: QtGui4 + 0xa7f61 (?winMouseButtonUp@QApplication@@SAXXZ + 0x2771)\n\t0x7ffe3e975c0c: USER32 + 0x15c0c (CallWindowProcW + 0x3bc)\n\t0x7ffe3e975601: USER32 + 0x15601 (DispatchMessageW + 0x1f1)\n\t 0x754d8f42: QtCore4 + 0x168f42 (?processEvents@QEventDispatcherWin32@@UEAA_NV?$QFlags@W4ProcessEventsFlag@QEventLoop@@@@@Z + 0x3e2)\n\t 0x7576f864: QtGui4 + 0x9f864 (?openPopup@QApplicationPrivate@@QEAAXPEAVQWidget@@@Z + 0x204)\n\t 0x754a6a7b: QtCore4 + 0x136a7b (?exec@QEventLoop@@QEAAHV?$QFlags@W4ProcessEventsFlag@QEventLoop@@@@@Z + 0x22b)\n\t 0x754a9cbf: QtCore4 + 0x139cbf (?exec@QCoreApplication@@SAHXZ + 0xdf)\n\t0x7ff6b098197b: quartus + 0x197b\n\t0x7ffe2009cbe8: CCL_MSG + 0xcbe8 (?msg_initialize_out_of_memory_handler@@YAXXZ + 0x378)\n\t0x7ffe2009e31c: CCL_MSG + 0xe31c (?msg_set_stack_size@@YAXH@Z + 0x7c)\n\t0x7ffe20344c0c: ccl_mem + 0x4c0c (?mem_malloc_wrapper@@YAPEAX_KPEAVMEM_TRACKER_THUNK@@PEBD@Z + 0x18c)\n\t0x7ffe2009c831: CCL_MSG + 0xc831 (?msg_exe_main@@YAHHPEAPEBDP6AHH0@Z@Z + 0xa1)\n\t0x7ff6b0982507: quartus + 0x2507\n\t0x7ff6b0981e74: quartus + 0x1e74\n\t0x7ffe3ecc7c23: KERNEL32 + 0x17c23 (BaseThreadInitThunk + 0x13)\n\t0x7ffe404ed720: ntdll + 0x6d720 (RtlUserThreadStart + 0x20)\n",
		"subsystem" : "unknown"
	},
	"quartus" : {
		"quartus_bits" : "64",
		"version" : "15.0.0",
		"build" : "145",
		"edition" : "Full Version"
	}
}