/*
WARNING: Do NOT edit the input and output ports in this file in a text
editor if you plan to continue editing the block that represents it in
the Block Editor! File corruption is VERY likely to occur.
*/
/*
Copyright (C) 1991-2015 Altera Corporation. All rights reserved.
Your use of Altera Corporation's design tools, logic functions 
and other software and tools, and its AMPP partner logic 
functions, and any output files from any of the foregoing 
(including device programming or simulation files), and any 
associated documentation or information are expressly subject 
to the terms and conditions of the Altera Program License 
Subscription Agreement, the Altera Quartus II License Agreement,
the Altera MegaCore Function License Agreement, or other 
applicable license agreement, including, without limitation, 
that your use is for the sole purpose of programming logic 
devices manufactured by Altera and sold by Altera or its 
authorized distributors.  Please refer to the applicable 
agreement for further details.
*/
(header "graphic" (version "1.4"))
(pin
	(input)
	(rect 88 64 256 80)
	(text "INPUT" (rect 125 0 153 10)(font "Arial" (font_size 6)))
	(text "The_clock" (rect 5 0 54 12)(font "Arial" ))
	(pt 168 8)
	(drawing
		(line (pt 84 12)(pt 109 12))
		(line (pt 84 4)(pt 109 4))
		(line (pt 113 8)(pt 168 8))
		(line (pt 84 12)(pt 84 4))
		(line (pt 109 4)(pt 113 8))
		(line (pt 109 12)(pt 113 8))
	)
	(text "VCC" (rect 128 7 148 17)(font "Arial" (font_size 6)))
)
(pin
	(input)
	(rect 88 232 264 248)
	(text "INPUT" (rect 133 0 161 10)(font "Arial" (font_size 6)))
	(text "input_data[15..0]" (rect 5 0 87 12)(font "Arial" ))
	(pt 176 8)
	(drawing
		(line (pt 92 12)(pt 117 12))
		(line (pt 92 4)(pt 117 4))
		(line (pt 121 8)(pt 176 8))
		(line (pt 92 12)(pt 92 4))
		(line (pt 117 4)(pt 121 8))
		(line (pt 117 12)(pt 121 8))
	)
	(text "VCC" (rect 136 7 156 17)(font "Arial" (font_size 6)))
)
(pin
	(output)
	(rect 1856 104 2032 120)
	(text "OUTPUT" (rect 1 0 39 10)(font "Arial" (font_size 6)))
	(text "data_out[15..0]" (rect 90 0 164 12)(font "Arial" ))
	(pt 0 8)
	(drawing
		(line (pt 0 8)(pt 52 8))
		(line (pt 52 4)(pt 78 4))
		(line (pt 52 12)(pt 78 12))
		(line (pt 52 12)(pt 52 4))
		(line (pt 78 4)(pt 82 8))
		(line (pt 82 8)(pt 78 12))
		(line (pt 78 12)(pt 82 8))
	)
)
(pin
	(output)
	(rect 1864 696 2040 712)
	(text "OUTPUT" (rect 1 0 39 10)(font "Arial" (font_size 6)))
	(text "get_package" (rect 90 0 152 12)(font "Arial" ))
	(pt 0 8)
	(drawing
		(line (pt 0 8)(pt 52 8))
		(line (pt 52 4)(pt 78 4))
		(line (pt 52 12)(pt 78 12))
		(line (pt 52 12)(pt 52 4))
		(line (pt 78 4)(pt 82 8))
		(line (pt 82 8)(pt 78 12))
		(line (pt 78 12)(pt 82 8))
	)
)
(symbol
	(rect 616 424 792 656)
	(text "header_decoder" (rect 164 5 176 82)(font "Arial" )(vertical))
	(text "inst8" (rect 4 8 16 31)(font "Arial" )(vertical))
	(port
		(pt 144 0)
		(input)
		(text "clk" (rect 0 0 14 12)(font "Arial" ))
		(text "clk" (rect 137 21 149 35)(font "Arial" )(vertical))
		(line (pt 144 0)(pt 144 16))
	)
	(port
		(pt 128 0)
		(input)
		(text "data_buffer0[15..0]" (rect 0 0 95 12)(font "Arial" ))
		(text "data_buffer0[15..0]" (rect 121 21 133 116)(font "Arial" )(vertical))
		(line (pt 128 0)(pt 128 16)(line_width 3))
	)
	(port
		(pt 112 0)
		(input)
		(text "data_buffer1[15..0]" (rect 0 0 95 12)(font "Arial" ))
		(text "data_buffer1[15..0]" (rect 105 21 117 116)(font "Arial" )(vertical))
		(line (pt 112 0)(pt 112 16)(line_width 3))
	)
	(port
		(pt 96 0)
		(input)
		(text "data_buffer2[15..0]" (rect 0 0 95 12)(font "Arial" ))
		(text "data_buffer2[15..0]" (rect 89 21 101 116)(font "Arial" )(vertical))
		(line (pt 96 0)(pt 96 16)(line_width 3))
	)
	(port
		(pt 80 0)
		(input)
		(text "data_buffer3[15..0]" (rect 0 0 95 12)(font "Arial" ))
		(text "data_buffer3[15..0]" (rect 73 21 85 116)(font "Arial" )(vertical))
		(line (pt 80 0)(pt 80 16)(line_width 3))
	)
	(port
		(pt 64 0)
		(input)
		(text "data_buffer4[15..0]" (rect 0 0 95 12)(font "Arial" ))
		(text "data_buffer4[15..0]" (rect 57 21 69 116)(font "Arial" )(vertical))
		(line (pt 64 0)(pt 64 16)(line_width 3))
	)
	(port
		(pt 48 0)
		(input)
		(text "data_buffer5[15..0]" (rect 0 0 95 12)(font "Arial" ))
		(text "data_buffer5[15..0]" (rect 41 21 53 116)(font "Arial" )(vertical))
		(line (pt 48 0)(pt 48 16)(line_width 3))
	)
	(port
		(pt 144 232)
		(output)
		(text "get_package" (rect 0 0 62 12)(font "Arial" ))
		(text "get_package" (rect 137 159 149 221)(font "Arial" )(vertical))
		(line (pt 144 232)(pt 144 216))
	)
	(drawing
		(rectangle (rect 16 16 160 216))
	)
	(rotate270)
)
(symbol
	(rect 312 192 456 272)
	(text "dff16" (rect 59 63 90 79)(font "Arial" (font_size 10)))
	(text "inst" (rect 8 4 25 16)(font "Arial" ))
	(port
		(pt 0 48)
		(input)
		(text "data[15..0]" (rect 0 0 60 14)(font "Arial" (font_size 8)))
		(text "data[15..0]" (rect 20 40 80 54)(font "Arial" (font_size 8)))
		(line (pt 0 48)(pt 16 48)(line_width 3))
	)
	(port
		(pt 0 32)
		(input)
		(text "clock" (rect 0 0 29 14)(font "Arial" (font_size 8)))
		(text "clock" (rect 26 24 55 38)(font "Arial" (font_size 8)))
		(line (pt 0 32)(pt 16 32))
	)
	(port
		(pt 144 32)
		(output)
		(text "q[15..0]" (rect 0 0 42 14)(font "Arial" (font_size 8)))
		(text "q[15..0]" (rect 88 24 130 38)(font "Arial" (font_size 8)))
		(line (pt 144 32)(pt 128 32)(line_width 3))
	)
	(drawing
		(text "DFF" (rect 109 51 131 63)(font "Arial" ))
		(line (pt 16 64)(pt 128 64))
		(line (pt 128 64)(pt 128 16))
		(line (pt 128 16)(pt 16 16))
		(line (pt 16 16)(pt 16 64))
		(line (pt 16 38)(pt 22 32))
		(line (pt 22 32)(pt 16 26))
	)
	(flipx)
)
(symbol
	(rect 504 176 648 256)
	(text "dff16" (rect 59 63 90 79)(font "Arial" (font_size 10)))
	(text "inst9" (rect 8 4 31 16)(font "Arial" ))
	(port
		(pt 0 48)
		(input)
		(text "data[15..0]" (rect 0 0 60 14)(font "Arial" (font_size 8)))
		(text "data[15..0]" (rect 20 40 80 54)(font "Arial" (font_size 8)))
		(line (pt 0 48)(pt 16 48)(line_width 3))
	)
	(port
		(pt 0 32)
		(input)
		(text "clock" (rect 0 0 29 14)(font "Arial" (font_size 8)))
		(text "clock" (rect 26 24 55 38)(font "Arial" (font_size 8)))
		(line (pt 0 32)(pt 16 32))
	)
	(port
		(pt 144 32)
		(output)
		(text "q[15..0]" (rect 0 0 42 14)(font "Arial" (font_size 8)))
		(text "q[15..0]" (rect 88 24 130 38)(font "Arial" (font_size 8)))
		(line (pt 144 32)(pt 128 32)(line_width 3))
	)
	(drawing
		(text "DFF" (rect 109 51 131 63)(font "Arial" ))
		(line (pt 16 64)(pt 128 64))
		(line (pt 128 64)(pt 128 16))
		(line (pt 128 16)(pt 16 16))
		(line (pt 16 16)(pt 16 64))
		(line (pt 16 38)(pt 22 32))
		(line (pt 22 32)(pt 16 26))
	)
	(flipx)
)
(symbol
	(rect 712 160 856 240)
	(text "dff16" (rect 59 63 90 79)(font "Arial" (font_size 10)))
	(text "inst10" (rect 8 4 37 16)(font "Arial" ))
	(port
		(pt 0 48)
		(input)
		(text "data[15..0]" (rect 0 0 60 14)(font "Arial" (font_size 8)))
		(text "data[15..0]" (rect 20 40 80 54)(font "Arial" (font_size 8)))
		(line (pt 0 48)(pt 16 48)(line_width 3))
	)
	(port
		(pt 0 32)
		(input)
		(text "clock" (rect 0 0 29 14)(font "Arial" (font_size 8)))
		(text "clock" (rect 26 24 55 38)(font "Arial" (font_size 8)))
		(line (pt 0 32)(pt 16 32))
	)
	(port
		(pt 144 32)
		(output)
		(text "q[15..0]" (rect 0 0 42 14)(font "Arial" (font_size 8)))
		(text "q[15..0]" (rect 88 24 130 38)(font "Arial" (font_size 8)))
		(line (pt 144 32)(pt 128 32)(line_width 3))
	)
	(drawing
		(text "DFF" (rect 109 51 131 63)(font "Arial" ))
		(line (pt 16 64)(pt 128 64))
		(line (pt 128 64)(pt 128 16))
		(line (pt 128 16)(pt 16 16))
		(line (pt 16 16)(pt 16 64))
		(line (pt 16 38)(pt 22 32))
		(line (pt 22 32)(pt 16 26))
	)
	(flipx)
)
(symbol
	(rect 904 144 1048 224)
	(text "dff16" (rect 59 63 90 79)(font "Arial" (font_size 10)))
	(text "inst11" (rect 8 4 37 16)(font "Arial" ))
	(port
		(pt 0 48)
		(input)
		(text "data[15..0]" (rect 0 0 60 14)(font "Arial" (font_size 8)))
		(text "data[15..0]" (rect 20 40 80 54)(font "Arial" (font_size 8)))
		(line (pt 0 48)(pt 16 48)(line_width 3))
	)
	(port
		(pt 0 32)
		(input)
		(text "clock" (rect 0 0 29 14)(font "Arial" (font_size 8)))
		(text "clock" (rect 26 24 55 38)(font "Arial" (font_size 8)))
		(line (pt 0 32)(pt 16 32))
	)
	(port
		(pt 144 32)
		(output)
		(text "q[15..0]" (rect 0 0 42 14)(font "Arial" (font_size 8)))
		(text "q[15..0]" (rect 88 24 130 38)(font "Arial" (font_size 8)))
		(line (pt 144 32)(pt 128 32)(line_width 3))
	)
	(drawing
		(text "DFF" (rect 109 51 131 63)(font "Arial" ))
		(line (pt 16 64)(pt 128 64))
		(line (pt 128 64)(pt 128 16))
		(line (pt 128 16)(pt 16 16))
		(line (pt 16 16)(pt 16 64))
		(line (pt 16 38)(pt 22 32))
		(line (pt 22 32)(pt 16 26))
	)
	(flipx)
)
(symbol
	(rect 1104 128 1248 208)
	(text "dff16" (rect 59 63 90 79)(font "Arial" (font_size 10)))
	(text "inst12" (rect 8 4 37 16)(font "Arial" ))
	(port
		(pt 0 48)
		(input)
		(text "data[15..0]" (rect 0 0 60 14)(font "Arial" (font_size 8)))
		(text "data[15..0]" (rect 20 40 80 54)(font "Arial" (font_size 8)))
		(line (pt 0 48)(pt 16 48)(line_width 3))
	)
	(port
		(pt 0 32)
		(input)
		(text "clock" (rect 0 0 29 14)(font "Arial" (font_size 8)))
		(text "clock" (rect 26 24 55 38)(font "Arial" (font_size 8)))
		(line (pt 0 32)(pt 16 32))
	)
	(port
		(pt 144 32)
		(output)
		(text "q[15..0]" (rect 0 0 42 14)(font "Arial" (font_size 8)))
		(text "q[15..0]" (rect 88 24 130 38)(font "Arial" (font_size 8)))
		(line (pt 144 32)(pt 128 32)(line_width 3))
	)
	(drawing
		(text "DFF" (rect 109 51 131 63)(font "Arial" ))
		(line (pt 16 64)(pt 128 64))
		(line (pt 128 64)(pt 128 16))
		(line (pt 128 16)(pt 16 16))
		(line (pt 16 16)(pt 16 64))
		(line (pt 16 38)(pt 22 32))
		(line (pt 22 32)(pt 16 26))
	)
	(flipx)
)
(symbol
	(rect 1296 112 1440 192)
	(text "dff16" (rect 59 63 90 79)(font "Arial" (font_size 10)))
	(text "inst13" (rect 8 4 37 16)(font "Arial" ))
	(port
		(pt 0 48)
		(input)
		(text "data[15..0]" (rect 0 0 60 14)(font "Arial" (font_size 8)))
		(text "data[15..0]" (rect 20 40 80 54)(font "Arial" (font_size 8)))
		(line (pt 0 48)(pt 16 48)(line_width 3))
	)
	(port
		(pt 0 32)
		(input)
		(text "clock" (rect 0 0 29 14)(font "Arial" (font_size 8)))
		(text "clock" (rect 26 24 55 38)(font "Arial" (font_size 8)))
		(line (pt 0 32)(pt 16 32))
	)
	(port
		(pt 144 32)
		(output)
		(text "q[15..0]" (rect 0 0 42 14)(font "Arial" (font_size 8)))
		(text "q[15..0]" (rect 88 24 130 38)(font "Arial" (font_size 8)))
		(line (pt 144 32)(pt 128 32)(line_width 3))
	)
	(drawing
		(text "DFF" (rect 109 51 131 63)(font "Arial" ))
		(line (pt 16 64)(pt 128 64))
		(line (pt 128 64)(pt 128 16))
		(line (pt 128 16)(pt 16 16))
		(line (pt 16 16)(pt 16 64))
		(line (pt 16 38)(pt 22 32))
		(line (pt 22 32)(pt 16 26))
	)
	(flipx)
)
(symbol
	(rect 1488 96 1632 176)
	(text "dff16" (rect 59 63 90 79)(font "Arial" (font_size 10)))
	(text "inst14" (rect 8 4 37 16)(font "Arial" ))
	(port
		(pt 0 48)
		(input)
		(text "data[15..0]" (rect 0 0 60 14)(font "Arial" (font_size 8)))
		(text "data[15..0]" (rect 20 40 80 54)(font "Arial" (font_size 8)))
		(line (pt 0 48)(pt 16 48)(line_width 3))
	)
	(port
		(pt 0 32)
		(input)
		(text "clock" (rect 0 0 29 14)(font "Arial" (font_size 8)))
		(text "clock" (rect 26 24 55 38)(font "Arial" (font_size 8)))
		(line (pt 0 32)(pt 16 32))
	)
	(port
		(pt 144 32)
		(output)
		(text "q[15..0]" (rect 0 0 42 14)(font "Arial" (font_size 8)))
		(text "q[15..0]" (rect 88 24 130 38)(font "Arial" (font_size 8)))
		(line (pt 144 32)(pt 128 32)(line_width 3))
	)
	(drawing
		(text "DFF" (rect 109 51 131 63)(font "Arial" ))
		(line (pt 16 64)(pt 128 64))
		(line (pt 128 64)(pt 128 16))
		(line (pt 128 16)(pt 16 16))
		(line (pt 16 16)(pt 16 64))
		(line (pt 16 38)(pt 22 32))
		(line (pt 22 32)(pt 16 26))
	)
	(flipx)
)
(symbol
	(rect 1688 80 1832 160)
	(text "dff16" (rect 59 63 90 79)(font "Arial" (font_size 10)))
	(text "inst15" (rect 8 4 37 16)(font "Arial" ))
	(port
		(pt 0 48)
		(input)
		(text "data[15..0]" (rect 0 0 60 14)(font "Arial" (font_size 8)))
		(text "data[15..0]" (rect 20 40 80 54)(font "Arial" (font_size 8)))
		(line (pt 0 48)(pt 16 48)(line_width 3))
	)
	(port
		(pt 0 32)
		(input)
		(text "clock" (rect 0 0 29 14)(font "Arial" (font_size 8)))
		(text "clock" (rect 26 24 55 38)(font "Arial" (font_size 8)))
		(line (pt 0 32)(pt 16 32))
	)
	(port
		(pt 144 32)
		(output)
		(text "q[15..0]" (rect 0 0 42 14)(font "Arial" (font_size 8)))
		(text "q[15..0]" (rect 88 24 130 38)(font "Arial" (font_size 8)))
		(line (pt 144 32)(pt 128 32)(line_width 3))
	)
	(drawing
		(text "DFF" (rect 109 51 131 63)(font "Arial" ))
		(line (pt 16 64)(pt 128 64))
		(line (pt 128 64)(pt 128 16))
		(line (pt 128 16)(pt 16 16))
		(line (pt 16 16)(pt 16 64))
		(line (pt 16 38)(pt 22 32))
		(line (pt 22 32)(pt 16 26))
	)
	(flipx)
)
(symbol
	(rect 1656 672 1800 752)
	(text "dff_one" (rect 52 63 100 79)(font "Arial" (font_size 10)))
	(text "inst1" (rect 8 4 31 16)(font "Arial" ))
	(port
		(pt 0 48)
		(input)
		(text "data" (rect 0 0 24 14)(font "Arial" (font_size 8)))
		(text "data" (rect 20 40 44 54)(font "Arial" (font_size 8)))
		(line (pt 0 48)(pt 16 48))
	)
	(port
		(pt 0 32)
		(input)
		(text "clock" (rect 0 0 29 14)(font "Arial" (font_size 8)))
		(text "clock" (rect 26 24 55 38)(font "Arial" (font_size 8)))
		(line (pt 0 32)(pt 16 32))
	)
	(port
		(pt 144 32)
		(output)
		(text "q" (rect 0 0 7 14)(font "Arial" (font_size 8)))
		(text "q" (rect 118 24 125 38)(font "Arial" (font_size 8)))
		(line (pt 144 32)(pt 128 32))
	)
	(drawing
		(text "DFF" (rect 109 51 131 63)(font "Arial" ))
		(line (pt 16 64)(pt 128 64))
		(line (pt 128 64)(pt 128 16))
		(line (pt 128 16)(pt 16 16))
		(line (pt 16 16)(pt 16 64))
		(line (pt 16 38)(pt 22 32))
		(line (pt 22 32)(pt 16 26))
	)
	(flipx)
)
(connector
	(pt 480 224)
	(pt 480 336)
	(bus)
)
(connector
	(pt 480 336)
	(pt 664 336)
	(bus)
)
(connector
	(pt 664 336)
	(pt 664 424)
	(bus)
)
(connector
	(pt 680 208)
	(pt 680 424)
	(bus)
)
(connector
	(pt 880 192)
	(pt 880 296)
	(bus)
)
(connector
	(pt 880 296)
	(pt 696 296)
	(bus)
)
(connector
	(pt 696 296)
	(pt 696 424)
	(bus)
)
(connector
	(pt 1072 176)
	(pt 1072 312)
	(bus)
)
(connector
	(pt 1072 312)
	(pt 712 312)
	(bus)
)
(connector
	(pt 712 312)
	(pt 712 424)
	(bus)
)
(connector
	(pt 1272 160)
	(pt 1272 328)
	(bus)
)
(connector
	(pt 1272 328)
	(pt 728 328)
	(bus)
)
(connector
	(pt 728 328)
	(pt 728 424)
	(bus)
)
(connector
	(pt 1464 144)
	(pt 1464 344)
	(bus)
)
(connector
	(pt 1464 344)
	(pt 744 344)
	(bus)
)
(connector
	(pt 744 344)
	(pt 744 424)
	(bus)
)
(connector
	(pt 1272 72)
	(pt 1272 144)
)
(connector
	(pt 1072 72)
	(pt 1072 160)
)
(connector
	(pt 880 176)
	(pt 880 72)
)
(connector
	(pt 480 208)
	(pt 480 72)
)
(connector
	(pt 296 224)
	(pt 296 72)
)
(connector
	(pt 296 72)
	(pt 480 72)
)
(connector
	(pt 880 72)
	(pt 1072 72)
)
(connector
	(pt 1072 72)
	(pt 1272 72)
)
(connector
	(pt 456 224)
	(pt 480 224)
	(bus)
)
(connector
	(pt 648 208)
	(pt 680 208)
	(bus)
)
(connector
	(pt 856 192)
	(pt 880 192)
	(bus)
)
(connector
	(pt 1048 176)
	(pt 1072 176)
	(bus)
)
(connector
	(pt 1248 160)
	(pt 1272 160)
	(bus)
)
(connector
	(pt 296 224)
	(pt 312 224)
)
(connector
	(pt 480 224)
	(pt 504 224)
	(bus)
)
(connector
	(pt 480 208)
	(pt 504 208)
)
(connector
	(pt 680 208)
	(pt 712 208)
	(bus)
)
(connector
	(pt 880 192)
	(pt 904 192)
	(bus)
)
(connector
	(pt 880 176)
	(pt 904 176)
)
(connector
	(pt 1072 176)
	(pt 1104 176)
	(bus)
)
(connector
	(pt 1072 160)
	(pt 1104 160)
)
(connector
	(pt 1272 160)
	(pt 1296 160)
	(bus)
)
(connector
	(pt 1272 144)
	(pt 1296 144)
)
(connector
	(pt 312 240)
	(pt 264 240)
	(bus)
)
(connector
	(pt 712 192)
	(pt 680 192)
)
(connector
	(pt 680 192)
	(pt 680 72)
)
(connector
	(pt 480 72)
	(pt 680 72)
)
(connector
	(pt 680 72)
	(pt 880 72)
)
(connector
	(text "The_clock" (rect 256 56 305 68)(font "Arial" ))
	(pt 256 72)
	(pt 296 72)
)
(connector
	(pt 1448 72)
	(pt 1448 128)
)
(connector
	(pt 1448 128)
	(pt 1488 128)
)
(connector
	(pt 1440 144)
	(pt 1464 144)
	(bus)
)
(connector
	(pt 1464 144)
	(pt 1488 144)
	(bus)
)
(connector
	(pt 1632 128)
	(pt 1688 128)
	(bus)
)
(connector
	(pt 1656 72)
	(pt 1656 112)
)
(connector
	(pt 1272 72)
	(pt 1448 72)
)
(connector
	(pt 1448 72)
	(pt 1656 72)
)
(connector
	(pt 1656 112)
	(pt 1688 112)
)
(connector
	(pt 1832 112)
	(pt 1856 112)
	(bus)
)
(connector
	(pt 760 656)
	(pt 760 720)
)
(connector
	(pt 760 720)
	(pt 1656 720)
)
(connector
	(pt 1800 704)
	(pt 1864 704)
)
(connector
	(pt 1656 704)
	(pt 1016 704)
)
(connector
	(pt 1016 704)
	(pt 1016 392)
)
(connector
	(pt 760 424)
	(pt 760 392)
)
(connector
	(pt 760 392)
	(pt 1016 392)
)
(connector
	(text "The_clock" (rect 1122 384 1171 396)(font "Arial" ))
	(pt 1016 392)
	(pt 1104 392)
)
(junction (pt 296 72))
(junction (pt 480 72))
(junction (pt 880 72))
(junction (pt 1072 72))
(junction (pt 1272 72))
(junction (pt 480 224))
(junction (pt 680 208))
(junction (pt 880 192))
(junction (pt 1072 176))
(junction (pt 1272 160))
(junction (pt 1464 144))
(junction (pt 680 72))
(junction (pt 1448 72))
(junction (pt 1016 392))
(text "Input Identifier" (rect 96 -16 376 27)(font "Times New Roman" (color 255 170 0)(font_size 28)(bold_italic)))
(text "2021.12.09 C. Lin" (rect 96 776 284 800)(font "Times New Roman" (color 255 85 0)(font_size 16)(bold_italic)))
(rectangle (rect 64 -32 2064 824)(color 255 170 0)(line_width 5))
